{
  "server": {
    "port": 8080
  },

  "socket": {
    "port": 81,
    "subURL": "/live"
  },

  "frontend": {
    "host": "localhost",
    "subFolder": "/"
  },

  "api": {
    "host": "localhost"
  }
}